<?xml version="1.0" encoding="utf-8"?>
<!-- Generator: Adobe Illustrator 24.1.3, SVG Export Plug-In . SVG Version: 6.00 Build 0)  -->
<svg version="1.1" id="Capa_1" xmlns="http://www.w3.org/2000/svg" xmlns:xlink="http://www.w3.org/1999/xlink" x="0px" y="0px"
	 viewBox="0 0 20 20" style="enable-background:new 0 0 20 20;" xml:space="preserve">
<style type="text/css">
	.st0{fill:#0C2B42;}
	.st1{fill:#FFFFFF;}
</style>
<g>
	<g>
		<path class="st0" d="M13.4,10.4H6.6c-0.2,0-0.3,0.1-0.3,0.3s0.1,0.3,0.3,0.3h6.7c0.2,0,0.3-0.1,0.3-0.3S13.5,10.4,13.4,10.4z
			 M13.4,8.7H6.6c-0.2,0-0.3,0.1-0.3,0.3s0.1,0.3,0.3,0.3h6.7c0.2,0,0.3-0.1,0.3-0.3S13.5,8.7,13.4,8.7z M13.4,12.1H6.6
			c-0.2,0-0.3,0.1-0.3,0.3s0.1,0.3,0.3,0.3h6.7c0.2,0,0.3-0.1,0.3-0.3S13.5,12.1,13.4,12.1z M13,4.2H7c-1.2,0-2.2,1-2.2,2.2v7.1
			c0,1.2,1,2.2,2.2,2.2h6c1.2,0,2.2-1,2.2-2.2V6.5C15.2,5.2,14.2,4.2,13,4.2z M14.5,13.5c0,0.8-0.7,1.5-1.5,1.5H7
			c-0.8,0-1.5-0.7-1.5-1.5V6.5C5.5,5.6,6.2,5,7,5h6c0.8,0,1.5,0.7,1.5,1.5V13.5z M13.4,7.1H6.6c-0.2,0-0.3,0.1-0.3,0.3
			s0.1,0.3,0.3,0.3h6.7c0.2,0,0.3-0.1,0.3-0.3S13.5,7.1,13.4,7.1z"/>
	</g>
</g>
</svg>
