<?xml version="1.0" encoding="utf-8"?>
<!-- Generator: Adobe Illustrator 24.1.3, SVG Export Plug-In . SVG Version: 6.00 Build 0)  -->
<svg version="1.1" id="Capa_1" xmlns="http://www.w3.org/2000/svg" xmlns:xlink="http://www.w3.org/1999/xlink" x="0px" y="0px"
	 viewBox="0 0 20 20" style="enable-background:new 0 0 20 20;" xml:space="preserve">
<style type="text/css">
	.st0{fill:#0C2B42;}
	.st1{fill:#FFFFFF;}
</style>
<path class="st0" d="M3.9,2.5c0,0,1.4,0,2.7,1.3c1.1,1.2,1.2,2.6,1.2,2.6L5.3,7.5c0,0,0.5,2.6,3.1,5.2s4.3,2.3,4.3,2.3l1.2-1.9
	c0,0,1.5,0.1,2.5,1.1c1,1,0.8,2.3,0.8,2.3s-1.6,0.8-3.9,1s-4.5-1.4-6.7-3.6c-2.1-2.1-4-6.3-4-7.8S3.9,2.5,3.9,2.5z"/>
</svg>
