[
    {
        "id": 1,
        "title": {
            "icon": "list_alt",
            "label": "Users"
        },
        "items": [
            {
                "id": 1,
                "icon": "person",
                "label": "User ratings",
                "link": "/user"
            },
            {
                "id": 2,
                "icon": "settings",
                "label": "User edit",
                "link": ""
            },
            {
                "id": 3,
                "icon": "list_alt",
                "label": "Create user",
                "link": "/create-user"
            }
        ]
    },
    {
        "id": 2,
        "title": {
            "icon": "settings",
            "label": "Administration"
        },
        "items": [
            {
                "id": 4,
                "icon": "home",
                "label": "View question",
                "link": ""
            },
            {
                "id": 5,
                "icon": "event_available",
                "label": "Test charts",
                "link": ""
            },
            {
                "id": 6,
                "icon": "home",
                "label": "Edit question",
                "link": ""
            },
            {
                "id": 7,
                "icon": "event_available",
                "label": "Entry",
                "link": ""
            },
            {
                "id": 8,
                "icon": "event_available",
                "label": "Test chart",
                "link": ""
            }
        ]
    },
    {
        "id": 3,
        "title": {
            "icon": "help",
            "label": "Create question"
        },
        "items": [
            {
                "id": 9,
                "icon": "list_alt",
                "label": "Create question",
                "link": ""
            },
            {
                "id": 10,
                "icon": "list_alt",
                "label": "Create grade",
                "link": ""
            },
            {
                "id": 10,
                "icon": "textsms",
                "label": "Speaking/Writing",
                "link": ""
            }
        ]
    },
    {
        "id": 4,
        "title": {
            "icon": "groups",
            "label": "Groups"
        },
        "items": [
            {
                "id": 11,
                "icon": "list_alt",
                "label": "Create groups",
                "link": ""
            },
            {
                "id": 12,
                "icon": "list_alt",
                "label": "List groups",
                "link": ""
            }
        ]
    }
]